#-- PERMISSIONS 
ui_print("-- Setting & fixing permissions"); 
set_metadata_recursive("/system", "uid", 0, "gid", 0, "dmode", 0755, "fmode", 0644, "capabilities", 0x0, "selabel", "u:object_r:system_file:s0");
set_metadata_recursive("/system/bin", "uid", 0, "gid", 2000, "dmode", 0755, "fmode", 0755, "capabilities", 0x0, "selabel", "u:object_r:system_file:s0");
set_metadata_recursive("/system/etc/dhcpcd", "uid", 0, "gid", 0, "dmode", 0755, "fmode", 0644, "capabilities", 0x0, "selabel", "u:object_r:system_file:s0");
set_metadata_recursive("/system/etc/firmware", "uid", 0, "gid", 2000, "dmode", 0755, "fmode", 0644, "capabilities", "0x0", "selabel", "u:object_r:system_file:s0");
set_metadata_recursive("/system/etc/firmware/wlan", "uid", 0, "gid", 0, "dmode", 0755, "fmode", 0644, "capabilities", "0x0", "selabel", "u:object_r:system_file:s0");
set_metadata_recursive("/system/etc/hostapd", "uid", 0, "gid", 2000, "dmode", 0755, "fmode", 0644, "capabilities", "0x0", "selabel", "u:object_r:system_file:s0");
set_metadata_recursive("/system/etc/ppp", "uid", 0, "gid", 0, "dmode", 0755, "fmode", 0555, "capabilities", "0x0", "selabel", "u:object_r:system_file:s0");
set_metadata_recursive("/system/lib", "uid", 0, "gid", 0, "dmode", 0755, "fmode", 0644, "capabilities", 0x0, "selabel", "u:object_r:system_file:s0");
set_metadata_recursive("/system/vendor", "uid", 0, "gid", 2000, "dmode", 0755, "fmode", 0644, "capabilities", 0x0, "selabel", "u:object_r:system_file:s0");
set_metadata_recursive("/system/vendor/bin", "uid", 0, "gid", 2000, "dmode", 0755, "fmode", 0755, "capabilities", 0x0, "selabel", "u:object_r:system_file:s0");
set_metadata_recursive("/system/vendor/lib/drm", "uid", 0, "gid", 2000, "dmode", 0755, "fmode", 0644, "capabilities", 0x0, "selabel", "u:object_r:system_file:s0");
set_metadata_recursive("/system/vendor/lib/hw", "uid", 0, "gid", 2000, "dmode", 0755, "fmode", 0644, "capabilities", 0x0, "selabel", "u:object_r:system_file:s0");
set_metadata_recursive("/system/vendor/lib/mediadrm", "uid", 0, "gid", 2000, "dmode", 0755, "fmode", 0644, "capabilities", 0x0, "selabel", "u:object_r:system_file:s0");
set_metadata_recursive("/system/vendor/lib/qcdrm", "uid", 0, "gid", 2000, "dmode", 0755, "fmode", 0644, "capabilities", 0x0, "selabel", "u:object_r:system_file:s0");
set_metadata_recursive("/system/vendor/lib/qcdrm/playready", "uid", 0, "gid", 0, "dmode", 0755, "fmode", 0644, "capabilities", 0x0, "selabel", "u:object_r:system_file:s0");
set_metadata_recursive("/system/vendor/lib/qcdrm/playready/lib/drm", "uid", 0, "gid", 2000, "dmode", 0755, "fmode", 0644, "capabilities", 0x0, "selabel", "u:object_r:system_file:s0");
set_metadata_recursive("/system/xbin", "uid", 0, "gid", 2000, "dmode", 0755, "fmode", 0755, "capabilities", 0x0, "selabel", "u:object_r:system_file:s0");
set_metadata("/system/bin/ATFWD-daemon", "uid", 0, "gid", 2000, "mode", 0755, "capabilities", 0x0, "selabel", "u:object_r:atfwd_exec:s0");
set_metadata("/system/bin/PktRspTest", "uid", 0, "gid", 2000, "mode", 0755, "capabilities", 0x0, "selabel", "u:object_r:diag_exec:s0");
set_metadata("/system/bin/StoreKeybox", "uid", 0, "gid", 2000, "mode", 0755, "capabilities", 0x0, "selabel", "u:object_r:sectest_exec:s0");
set_metadata("/system/bin/Wifilogger_app", "uid", 0, "gid", 2000, "mode", 0755, "capabilities", 0x0, "selabel", "u:object_r:wcnss_service_exec:s0");
set_metadata("/system/bin/XMTEST", "uid", 0, "gid", 2000, "mode", 0755, "capabilities", 0x0, "selabel", "u:object_r:LCTEST_exec:s0");
set_metadata("/system/bin/adsprpcd", "uid", 0, "gid", 2000, "mode", 0755, "capabilities", 0x0, "selabel", "u:object_r:adsprpcd_exec:s0");
set_metadata("/system/bin/app_process32", "uid", 0, "gid", 2000, "mode", 0755, "capabilities", 0x0, "selabel", "u:object_r:zygote_exec:s0");
set_metadata("/system/bin/app_process64", "uid", 0, "gid", 2000, "mode", 0755, "capabilities", 0x0, "selabel", "u:object_r:zygote_exec:s0");
set_metadata("/system/bin/audiod", "uid", 0, "gid", 2000, "mode", 0755, "capabilities", 0x0, "selabel", "u:object_r:audiod_exec:s0");
set_metadata("/system/bin/blkid", "uid", 0, "gid", 2000, "mode", 0755, "capabilities", 0x0, "selabel", "u:object_r:blkid_exec:s0");
set_metadata("/system/bin/bootanimation", "uid", 0, "gid", 2000, "mode", 0755, "capabilities", 0x0, "selabel", "u:object_r:bootanim_exec:s0");
set_metadata("/system/bin/clatd", "uid", 0, "gid", 2000, "mode", 0755, "capabilities", 0x0, "selabel", "u:object_r:clatd_exec:s0");
set_metadata("/system/bin/cnd", "uid", 0, "gid", 2000, "mode", 0755, "capabilities", 0x0, "selabel", "u:object_r:cnd_exec:s0");
set_metadata("/system/bin/cnss-daemon", "uid", 0, "gid", 2000, "mode", 0755, "capabilities", 0x0, "selabel", "u:object_r:wcnss_service_exec:s0");
set_metadata("/system/bin/consumerir_test", "uid", 0, "gid", 2000, "mode", 0755, "capabilities", 0x0, "selabel", "u:object_r:consumerir_test_exec:s0");
set_metadata("/system/bin/debuggerd", "uid", 0, "gid", 2000, "mode", 0755, "capabilities", 0x0, "selabel", "u:object_r:debuggerd_exec:s0");
set_metadata("/system/bin/debuggerd64", "uid", 0, "gid", 2000, "mode", 0755, "capabilities", 0x0, "selabel", "u:object_r:debuggerd_exec:s0");
set_metadata("/system/bin/dex2oat", "uid", 0, "gid", 2000, "mode", 0755, "capabilities", 0x0, "selabel", "u:object_r:dex2oat_exec:s0");
set_metadata("/system/bin/dhcpcd", "uid", 0, "gid", 2000, "mode", 0755, "capabilities", 0x0, "selabel", "u:object_r:dhcp_exec:s0");
set_metadata("/system/bin/diag_dci_sample", "uid", 0, "gid", 2000, "mode", 0755, "capabilities", 0x0, "selabel", "u:object_r:diag_exec:s0");
set_metadata("/system/bin/diag_klog", "uid", 0, "gid", 2000, "mode", 0755, "capabilities", 0x0, "selabel", "u:object_r:diag_exec:s0");
set_metadata("/system/bin/diag_mdlog", "uid", 0, "gid", 2000, "mode", 0755, "capabilities", 0x0, "selabel", "u:object_r:qlogd_exec:s0");
set_metadata("/system/bin/diag_socket_log", "uid", 0, "gid", 2000, "mode", 0755, "capabilities", 0x0, "selabel", "u:object_r:diag_exec:s0");
set_metadata("/system/bin/diag_uart_log", "uid", 0, "gid", 2000, "mode", 0755, "capabilities", 0x0, "selabel", "u:object_r:diag_exec:s0");
set_metadata("/system/bin/displayfeature", "uid", 0, "gid", 2000, "mode", 0755, "capabilities", 0x0, "selabel", "u:object_r:displayfeature_exec:s0");
set_metadata("/system/bin/dnsmasq", "uid", 0, "gid", 2000, "mode", 0755, "capabilities", 0x0, "selabel", "u:object_r:dnsmasq_exec:s0");
set_metadata("/system/bin/dpmd", "uid", 0, "gid", 2000, "mode", 0755, "capabilities", 0x0, "selabel", "u:object_r:dpmd_exec:s0");
set_metadata("/system/bin/drmserver", "uid", 0, "gid", 2000, "mode", 0755, "capabilities", 0x0, "selabel", "u:object_r:drmserver_exec:s0");
set_metadata("/system/bin/dumpstate", "uid", 0, "gid", 2000, "mode", 0755, "capabilities", 0x0, "selabel", "u:object_r:dumpstate_exec:s0");
set_metadata("/system/bin/dun-server", "uid", 0, "gid", 2000, "mode", 0755, "capabilities", 0x0, "selabel", "u:object_r:dun-server_exec:s0");
set_metadata("/system/bin/e2fsck", "uid", 0, "gid", 2000, "mode", 0755, "capabilities", 0x0, "selabel", "u:object_r:fsck_exec:s0");
set_metadata("/system/bin/fdpp", "uid", 0, "gid", 2000, "mode", 0755, "capabilities", 0x0, "selabel", "u:object_r:fdpp_exec:s0");
set_metadata("/system/bin/fingerprintd", "uid", 0, "gid", 2000, "mode", 0755, "capabilities", 0x0, "selabel", "u:object_r:fingerprintd_exec:s0");
set_metadata("/system/bin/fsck.f2fs", "capabilities", 0x0, "selabel", "u:object_r:fsck_exec:s0");
set_metadata("/system/bin/fsck_msdos", "uid", 0, "gid", 2000, "mode", 0755, "capabilities", 0x0, "selabel", "u:object_r:fsck_exec:s0");
set_metadata("/system/bin/ftmdaemon", "uid", 0, "gid", 2000, "mode", 0755, "capabilities", 0x0, "selabel", "u:object_r:ftmdaemon_exec:s0");
set_metadata("/system/bin/garden_app", "uid", 0, "gid", 2000, "mode", 0755, "capabilities", 0x0, "selabel", "u:object_r:location_exec:s0");
set_metadata("/system/bin/gatekeeperd", "uid", 0, "gid", 2000, "mode", 0755, "capabilities", 0x0, "selabel", "u:object_r:gatekeeperd_exec:s0");
set_metadata("/system/bin/gpsone_daemon", "uid", 0, "gid", 2000, "mode", 0755, "capabilities", 0x0, "selabel", "u:object_r:location_exec:s0");
set_metadata("/system/bin/hal_proxy_daemon", "uid", 0, "gid", 2000, "mode", 0755, "capabilities", 0x0, "selabel", "u:object_r:wcnss_service_exec:s0");
set_metadata("/system/bin/hostapd", "uid", 0, "gid", 2000, "mode", 0755, "capabilities", 0x0, "selabel", "u:object_r:hostapd_exec:s0");
set_metadata("/system/bin/hostapd_cli", "uid", 0, "gid", 2000, "mode", 0755, "capabilities", 0x0, "selabel", "u:object_r:hostapd_exec:s0");
set_metadata("/system/bin/hs20-osu-client", "uid", 0, "gid", 2000, "mode", 0755, "capabilities", 0x0, "selabel", "u:object_r:wcnss_service_exec:s0");
set_metadata("/system/bin/hvdcp_opti", "uid", 0, "gid", 2000, "mode", 0755, "capabilities", 0x0, "selabel", "u:object_r:hvdcp_exec:s0");
set_metadata("/system/bin/ims_rtp_daemon", "uid", 0, "gid", 2000, "mode", 0755, "capabilities", 0x0, "selabel", "u:object_r:ims_exec:s0");
set_metadata("/system/bin/imscmservice", "uid", 0, "gid", 2000, "mode", 0755, "capabilities", 0x0, "selabel", "u:object_r:imscm_exec:s0");
set_metadata("/system/bin/imsdatadaemon", "uid", 0, "gid", 2000, "mode", 0755, "capabilities", 0x0, "selabel", "u:object_r:ims_exec:s0");
set_metadata("/system/bin/imsqmidaemon", "uid", 0, "gid", 2000, "mode", 0755, "capabilities", 0x0, "selabel", "u:object_r:ims_exec:s0");
set_metadata("/system/bin/init.atmel_ts.sh", "capabilities", 0x0, "selabel", "u:object_r:atmel_ts_exec:s0");
set_metadata("/system/bin/install-recovery.sh", "capabilities", 0x0, "selabel", "u:object_r:install_recovery_exec:s0");
set_metadata("/system/bin/installd", "uid", 0, "gid", 2000, "mode", 0755, "capabilities", 0x0, "selabel", "u:object_r:installd_exec:s0");
set_metadata("/system/bin/ipacm", "uid", 0, "gid", 2000, "mode", 0755, "capabilities", 0x0, "selabel", "u:object_r:ipacm_exec:s0");
set_metadata("/system/bin/ipacm-diag", "uid", 0, "gid", 2000, "mode", 0755, "capabilities", 0x0, "selabel", "u:object_r:ipacm-diag_exec:s0");
set_metadata("/system/bin/irsc_util", "uid", 0, "gid", 2000, "mode", 0755, "capabilities", 0x0, "selabel", "u:object_r:irsc_util_exec:s0");
set_metadata("/system/bin/iw", "uid", 0, "gid", 2000, "mode", 0755, "capabilities", 0x0, "selabel", "u:object_r:wcnss_service_exec:s0");
set_metadata("/system/bin/iwlist", "uid", 0, "gid", 2000, "mode", 0755, "capabilities", 0x0, "selabel", "u:object_r:wcnss_service_exec:s0");
set_metadata("/system/bin/iwpriv", "uid", 0, "gid", 2000, "mode", 0755, "capabilities", 0x0, "selabel", "u:object_r:wcnss_service_exec:s0");
set_metadata("/system/bin/keystore", "uid", 0, "gid", 2000, "mode", 0755, "capabilities", 0x0, "selabel", "u:object_r:keystore_exec:s0");
set_metadata("/system/bin/lmkd", "uid", 0, "gid", 2000, "mode", 0755, "capabilities", 0x0, "selabel", "u:object_r:lmkd_exec:s0");
set_metadata("/system/bin/loc_launcher", "uid", 0, "gid", 2000, "mode", 0755, "capabilities", 0x0, "selabel", "u:object_r:location_exec:s0");
set_metadata("/system/bin/logcat", "uid", 0, "gid", 2000, "mode", 0755, "capabilities", 0x0, "selabel", "u:object_r:logcat_exec:s0");
set_metadata("/system/bin/logd", "uid", 0, "gid", 2000, "mode", 0755, "capabilities", 0x0, "selabel", "u:object_r:logd_exec:s0");
set_metadata("/system/bin/logwrapper", "uid", 0, "gid", 2000, "mode", 0755, "capabilities", 0x0, "selabel", "u:object_r:system_file:s0");
set_metadata("/system/bin/lowi-server", "uid", 0, "gid", 2000, "mode", 0755, "capabilities", 0x0, "selabel", "u:object_r:location_exec:s0");
set_metadata("/system/bin/mcd", "uid", 0, "gid", 2000, "mode", 0755, "capabilities", 0x0, "selabel", "u:object_r:mcd_exec:s0");
set_metadata("/system/bin/mdnsd", "uid", 0, "gid", 2000, "mode", 0755, "capabilities", 0x0, "selabel", "u:object_r:mdnsd_exec:s0");
set_metadata("/system/bin/mediaserver", "uid", 0, "gid", 2000, "mode", 0755, "capabilities", 0x0, "selabel", "u:object_r:mediaserver_exec:s0");
set_metadata("/system/bin/mm-audio-ftm", "uid", 0, "gid", 2000, "mode", 0755, "capabilities", 0x0, "selabel", "u:object_r:mm-audio-ftm_exec:s0");
set_metadata("/system/bin/mm-qcamera-daemon", "uid", 0, "gid", 2000, "mode", 0755, "capabilities", 0x0, "selabel", "u:object_r:mm-qcamerad_exec:s0");
set_metadata("/system/bin/mmi", "uid", 0, "gid", 2000, "mode", 0755, "capabilities", 0x0, "selabel", "u:object_r:mmi_exec:s0");
set_metadata("/system/bin/msm_irqbalance", "uid", 0, "gid", 2000, "mode", 0755, "capabilities", 0x0, "selabel", "u:object_r:msm_irqbalanced_exec:s0");
set_metadata("/system/bin/mtd", "uid", 0, "gid", 2000, "mode", 0755, "capabilities", 0x0, "selabel", "u:object_r:mt_daemon_exec:s0");
set_metadata("/system/bin/mtpd", "uid", 0, "gid", 2000, "mode", 0755, "capabilities", 0x0, "selabel", "u:object_r:mtp_exec:s0");
set_metadata("/system/bin/namespaceInit", "uid", 0, "gid", 2000, "mode", 0755, "capabilities", 0x0, "selabel", "u:object_r:zygote_exec:s0");
set_metadata("/system/bin/ndc", "uid", 0, "gid", 2000, "mode", 0755, "capabilities", 0x0, "selabel", "u:object_r:wcnss_service_exec:s0");
set_metadata("/system/bin/netd", "uid", 0, "gid", 2000, "mode", 0755, "capabilities", 0x0, "selabel", "u:object_r:netd_exec:s0");
set_metadata("/system/bin/netmgrd", "uid", 0, "gid", 2000, "mode", 0755, "capabilities", 0x0, "selabel", "u:object_r:netmgrd_exec:s0");
set_metadata("/system/bin/patchoat", "uid", 0, "gid", 2000, "mode", 0755, "capabilities", 0x0, "selabel", "u:object_r:dex2oat_exec:s0");
set_metadata("/system/bin/pm-proxy", "uid", 0, "gid", 2000, "mode", 0755, "capabilities", 0x0, "selabel", "u:object_r:per_mgr_exec:s0");
set_metadata("/system/bin/pm-service", "uid", 0, "gid", 2000, "mode", 0755, "capabilities", 0x0, "selabel", "u:object_r:per_mgr_exec:s0");
set_metadata("/system/bin/port-bridge", "uid", 0, "gid", 2000, "mode", 0755, "capabilities", 0x0, "selabel", "u:object_r:port-bridge_exec:s0");
set_metadata("/system/bin/pppd", "uid", 0, "gid", 2000, "mode", 0755, "capabilities", 0x0, "selabel", "u:object_r:ppp_exec:s0");
set_metadata("/system/bin/ptt_socket_app", "uid", 0, "gid", 2000, "mode", 0755, "capabilities", 0x0, "selabel", "u:object_r:wcnss_service_exec:s0");
set_metadata("/system/bin/qcom-system-daemon", "uid", 0, "gid", 2000, "mode", 0755, "capabilities", 0x0, "selabel", "u:object_r:qcomsysd_exec:s0");
set_metadata("/system/bin/qfipsverify", "uid", 0, "gid", 2000, "mode", 0755, "capabilities", 0x0, "selabel", "u:object_r:sectest_exec:s0");
set_metadata("/system/bin/qmuxd", "uid", 0, "gid", 2000, "mode", 0755, "capabilities", 0x0, "selabel", "u:object_r:qmuxd_exec:s0");
set_metadata("/system/bin/qseecom_sample_client", "uid", 0, "gid", 2000, "mode", 0755, "capabilities", 0x0, "selabel", "u:object_r:sectest_exec:s0");
set_metadata("/system/bin/qseecom_security_test", "uid", 0, "gid", 2000, "mode", 0755, "capabilities", 0x0, "selabel", "u:object_r:sectest_exec:s0");
set_metadata("/system/bin/qseecomd", "uid", 0, "gid", 2000, "mode", 0755, "capabilities", 0x0, "selabel", "u:object_r:tee_exec:s0");
set_metadata("/system/bin/racoon", "uid", 0, "gid", 2000, "mode", 0755, "capabilities", 0x0, "selabel", "u:object_r:racoon_exec:s0");
set_metadata("/system/bin/resize2fs", "uid", 0, "gid", 2000, "mode", 0755, "capabilities", 0x0, "selabel", "u:object_r:resize2fs_exec:s0");
set_metadata("/system/bin/resize_ext4", "uid", 0, "gid", 2000, "mode", 0755, "capabilities", 0x0, "selabel", "u:object_r:resize_ext4_exec:s0");
set_metadata("/system/bin/rild", "uid", 0, "gid", 2000, "mode", 0755, "capabilities", 0x0, "selabel", "u:object_r:rild_exec:s0");
set_metadata("/system/bin/rmt_storage", "uid", 0, "gid", 2000, "mode", 0755, "capabilities", 0x0, "selabel", "u:object_r:rmt_storage_exec:s0");
set_metadata("/system/bin/run-as", "uid", 0, "gid", 2000, "mode", 0755, "capabilities", 0x0, "selabel", "u:object_r:runas_exec:s0");
set_metadata("/system/bin/sdcard", "uid", 0, "gid", 2000, "mode", 0755, "capabilities", 0x0, "selabel", "u:object_r:sdcardd_exec:s0");
set_metadata("/system/bin/sdlog", "uid", 0, "gid", 2000, "mode", 0755, "capabilities", 0x0, "selabel", "u:object_r:sdlog_exec:s0");
set_metadata("/system/bin/sdlog_t2", "uid", 0, "gid", 2000, "mode", 0755, "capabilities", 0x0, "selabel", "u:object_r:sdlog_exec:s0");
set_metadata("/system/bin/secure_ui_sample_client", "uid", 0, "gid", 2000, "mode", 0755, "capabilities", 0x0, "selabel", "u:object_r:sectest_exec:s0");
set_metadata("/system/bin/sensors.qcom", "capabilities", 0x0, "selabel", "u:object_r:sensors_exec:s0");
set_metadata("/system/bin/sensors_test", "uid", 0, "gid", 2000, "mode", 0755, "capabilities", 0x0, "selabel", "u:object_r:sensors_test2_exec:s0");
set_metadata("/system/bin/servicemanager", "uid", 0, "gid", 2000, "mode", 0755, "capabilities", 0x0, "selabel", "u:object_r:servicemanager_exec:s0");
set_metadata("/system/bin/sgdisk", "uid", 0, "gid", 2000, "mode", 0755, "capabilities", 0x0, "selabel", "u:object_r:sgdisk_exec:s0");
set_metadata("/system/bin/sh", "uid", 0, "gid", 2000, "mode", 0755, "capabilities", 0x0, "selabel", "u:object_r:shell_exec:s0");
set_metadata("/system/bin/ssServices", "uid", 0, "gid", 2000, "mode", 0755, "capabilities", 0x0, "selabel", "u:object_r:zygote_exec:s0");
set_metadata("/system/bin/ssr_diag", "uid", 0, "gid", 2000, "mode", 0755, "capabilities", 0x0, "selabel", "u:object_r:ssr_diag_exec:s0");
set_metadata("/system/bin/ssr_setup", "uid", 0, "gid", 2000, "mode", 0755, "capabilities", 0x0, "selabel", "u:object_r:ssr_setup_exec:s0");
set_metadata("/system/bin/subsystem_ramdump", "uid", 0, "gid", 2000, "mode", 0755, "capabilities", 0x0, "selabel", "u:object_r:subsystem_ramdump_exec:s0");
set_metadata("/system/bin/surfaceflinger", "uid", 0, "gid", 2000, "mode", 0755, "capabilities", 0x0, "selabel", "u:object_r:surfaceflinger_exec:s0");
set_metadata("/system/bin/tbaseLoader", "uid", 0, "gid", 2000, "mode", 0755, "capabilities", 0x0, "selabel", "u:object_r:tbaseLoader_exec:s0");
set_metadata("/system/bin/test_diag", "uid", 0, "gid", 2000, "mode", 0755, "capabilities", 0x0, "selabel", "u:object_r:diag_exec:s0");
set_metadata("/system/bin/tftp_server", "uid", 0, "gid", 2000, "mode", 0755, "capabilities", 0x0, "selabel", "u:object_r:rfs_access_exec:s0");
set_metadata("/system/bin/time_daemon", "uid", 0, "gid", 2000, "mode", 0755, "capabilities", 0x0, "selabel", "u:object_r:time_daemon_exec:s0");
set_metadata("/system/bin/toolbox", "uid", 0, "gid", 2000, "mode", 0755, "capabilities", 0x0, "selabel", "u:object_r:toolbox_exec:s0");
set_metadata("/system/bin/torch0_off", "uid", 0, "gid", 2000, "mode", 0755, "capabilities", 0x0, "selabel", "u:object_r:torch0_off_exec:s0");
set_metadata("/system/bin/torch0_on", "uid", 0, "gid", 2000, "mode", 0755, "capabilities", 0x0, "selabel", "u:object_r:torch0_on_exec:s0");
set_metadata("/system/bin/torch1_off", "uid", 0, "gid", 2000, "mode", 0755, "capabilities", 0x0, "selabel", "u:object_r:torch1_off_exec:s0");
set_metadata("/system/bin/torch1_on", "uid", 0, "gid", 2000, "mode", 0755, "capabilities", 0x0, "selabel", "u:object_r:torch1_on_exec:s0");
set_metadata("/system/bin/toybox", "uid", 0, "gid", 2000, "mode", 0755, "capabilities", 0x0, "selabel", "u:object_r:toolbox_exec:s0");
set_metadata("/system/bin/tune2fs", "uid", 0, "gid", 2000, "mode", 0755, "capabilities", 0x0, "selabel", "u:object_r:tune2fs_exec:s0");
set_metadata("/system/bin/tzdatacheck", "uid", 0, "gid", 2000, "mode", 0755, "capabilities", 0x0, "selabel", "u:object_r:tzdatacheck_exec:s0");
set_metadata("/system/bin/uncrypt", "uid", 0, "gid", 2000, "mode", 0755, "capabilities", 0x0, "selabel", "u:object_r:uncrypt_exec:s0");
set_metadata("/system/bin/vdc", "uid", 0, "gid", 2000, "mode", 0755, "capabilities", 0x0, "selabel", "u:object_r:vdc_exec:s0");
set_metadata("/system/bin/vold", "uid", 0, "gid", 2000, "mode", 0755, "capabilities", 0x0, "selabel", "u:object_r:vold_exec:s0");
set_metadata("/system/bin/wcnss_service", "uid", 0, "gid", 2000, "mode", 0755, "capabilities", 0x0, "selabel", "u:object_r:wcnss_service_exec:s0");
set_metadata("/system/bin/wfdservice", "uid", 0, "gid", 2000, "mode", 0755, "capabilities", 0x0, "selabel", "u:object_r:wfdservice_exec:s0");
set_metadata("/system/bin/wpa_supplicant", "uid", 0, "gid", 2000, "mode", 0755, "capabilities", 0x0, "selabel", "u:object_r:wpa_exec:s0");
set_metadata("/system/bin/write_tp", "uid", 0, "gid", 2000, "mode", 0755, "capabilities", 0x0, "selabel", "u:object_r:write_tp_exec:s0");
set_metadata("/system/bin/write_tp2", "uid", 0, "gid", 2000, "mode", 0755, "capabilities", 0x0, "selabel", "u:object_r:write_tp2_exec:s0");
set_metadata("/system/bin/xtwifi-client", "uid", 0, "gid", 2000, "mode", 0755, "capabilities", 0x0, "selabel", "u:object_r:location_exec:s0");
set_metadata("/system/bin/xtwifi-inet-agent", "uid", 0, "gid", 2000, "mode", 0755, "capabilities", 0x0, "selabel", "u:object_r:location_exec:s0");
set_metadata("/system/etc", "uid", 0, "gid", 2000, "mode", 0755, "capabilities", 0x0, "selabel", "u:object_r:system_file:s0");
set_metadata("/system/etc/bluetooth", "uid", 0, "gid", 2000, "mode", 0755, "capabilities", 0x0, "selabel", "u:object_r:system_file:s0");
set_metadata("/system/etc/bluetooth/auto_pair_devlist.conf", "uid", 0, "gid", 0, "mode", 0644, "capabilities", 0x0, "selabel", "u:object_r:system_file:s0");
set_metadata("/system/etc/bluetooth/bt_did.conf", "uid", 0, "gid", 0, "mode", 0644, "capabilities", 0x0, "selabel", "u:object_r:system_file:s0");
set_metadata("/system/etc/bluetooth/bt_stack.conf", "uid", 0, "gid", 0, "mode", 0644, "capabilities", 0x0, "selabel", "u:object_r:system_file:s0");
set_metadata("/system/etc/dhcpcd/dhcpcd-hooks", "uid", 0, "gid", 0, "mode", 0755, "capabilities", 0x0, "selabel", "u:object_r:system_file:s0");
set_metadata("/system/etc/dhcpcd/dhcpcd-run-hooks", "uid", 1014, "gid", 2000, "mode", 0550, "capabilities", 0x0, "selabel", "u:object_r:system_file:s0");
set_metadata("/system/etc/event-log-tags", "uid", 0, "gid", 0, "mode", 0644, "capabilities", 0x0, "selabel", "u:object_r:system_file:s0");
set_metadata("/system/etc/firmware/wlan/prima", "uid", 0, "gid", 2000, "mode", 0755, "capabilities", 0x0, "selabel", "u:object_r:system_file:s0");
set_metadata("/system/etc/hostapd/hostapd_default.conf", "uid", 0, "gid", 0, "mode", 0644, "capabilities", 0x0, "selabel", "u:object_r:system_file:s0");
set_metadata("/system/etc/init.qcom.sdio.sh", "uid", 0, "gid", 1000, "mode", 0550, "capabilities", 0x0, "selabel", "u:object_r:system_file:s0");
set_metadata("/system/etc/permissions", "uid", 0, "gid", 2000, "mode", 0755, "capabilities", 0x0, "selabel", "u:object_r:system_file:s0");
set_metadata("/system/etc/security", "uid", 0, "gid", 2000, "mode", 0755, "capabilities", 0x0, "selabel", "u:object_r:system_file:s0");
set_metadata("/system/etc/security/cacerts", "uid", 0, "gid", 2000, "mode", 0755, "capabilities", 0x0, "selabel", "u:object_r:system_file:s0");
set_metadata("/system/rfs", "capabilities", 0x0, "selabel", "u:object_r:rfs_system_file:s0");
set_metadata("/system/vendor/bin/RIDLClient.exe", "capabilities", 0x0, "selabel", "u:object_r:RIDL_exec:s0");
set_metadata("/system/vendor/bin/fidodaemon", "capabilities", 0x0, "selabel", "u:object_r:fidodaemon_exec:s0");
set_metadata("/system/vendor/bin/mm-pp-daemon", "capabilities", 0x0, "selabel", "u:object_r:mm-pp-daemon_exec:s0");
set_metadata("/system/vendor/bin/perfd", "capabilities", 0x0, "selabel", "u:object_r:perfd_exec:s0");
set_metadata("/system/vendor/bin/qti", "capabilities", 0x0, "selabel", "u:object_r:qti_exec:s0");
set_metadata("/system/vendor/bin/sampleauthdaemon", "capabilities", 0x0, "selabel", "u:object_r:fidotest_exec:s0");
set_metadata("/system/vendor/bin/slim_daemon", "capabilities", 0x0, "selabel", "u:object_r:location_exec:s0");
set_metadata("/system/vendor/bin/thermal-engine", "capabilities", 0x0, "selabel", "u:object_r:thermal-engine_exec:s0");
set_metadata("/system/vendor/etc", "uid", 0, "gid", 2000, "mode", 0755, "capabilities", 0x0, "selabel", "u:object_r:system_file:s0");
set_metadata("/system/vendor/etc/audio_effects.conf", "uid", 0, "gid", 0, "mode", 0644, "capabilities", 0x0, "selabel", "u:object_r:system_file:s0");
set_metadata("/system/vendor/etc/msm_irqbalance.conf", "uid", 0, "gid", 0, "mode", 0644, "capabilities", 0x0, "selabel", "u:object_r:system_file:s0");
set_metadata("/system/vendor/lib", "uid", 0, "gid", 2000, "mode", 0755, "capabilities", 0x0, "selabel", "u:object_r:system_file:s0");
set_metadata("/system/vendor/lib/egl", "uid", 0, "gid", 2000, "mode", 0755, "capabilities", 0x0, "selabel", "u:object_r:system_file:s0");
set_metadata("/system/vendor/lib/hw/flp.default.so", "uid", 0, "gid", 0, "mode", 0644, "capabilities", 0x0, "selabel", "u:object_r:system_file:s0");
set_metadata("/system/vendor/lib/mediadrm/libdrmclearkeyplugin.so", "uid", 0, "gid", 0, "mode", 0644, "capabilities", 0x0, "selabel", "u:object_r:system_file:s0");
set_metadata("/system/vendor/lib/mediadrm/libwvdrmengine.so", "uid", 0, "gid", 0, "mode", 0644, "capabilities", 0x0, "selabel", "u:object_r:system_file:s0");
set_metadata("/system/vendor/lib/qcdrm/playready/lib", "uid", 0, "gid", 2000, "mode", 0755, "capabilities", 0x0, "selabel", "u:object_r:system_file:s0");
set_metadata("/system/vendor/lib/qcdrm/playready/lib/drm/libdrmprplugin_customer.so", "uid", 0, "gid", 0, "mode", 0644, "capabilities", 0x0, "selabel", "u:object_r:system_file:s0");
set_metadata("/system/vendor/lib/qcdrm/playready/lib/mediadrm", "uid", 0, "gid", 2000, "mode", 0755, "capabilities", 0x0, "selabel", "u:object_r:system_file:s0");
set_metadata("/system/vendor/lib/rfsa", "uid", 0, "gid", 2000, "mode", 0755, "capabilities", 0x0, "selabel", "u:object_r:system_file:s0");
set_metadata("/system/vendor/lib/rfsa/adsp", "uid", 0, "gid", 2000, "mode", 0755, "capabilities", 0x0, "selabel", "u:object_r:system_file:s0");
set_metadata("/system/vendor/lib/soundfx", "uid", 0, "gid", 2000, "mode", 0755, "capabilities", 0x0, "selabel", "u:object_r:system_file:s0");
set_metadata("/system/vendor/media", "uid", 0, "gid", 2000, "mode", 0755, "capabilities", 0x0, "selabel", "u:object_r:system_file:s0");
set_metadata("/system/xbin/dexdump", "uid", 0, "gid", 2000, "mode", 0755, "capabilities", 0x0, "selabel", "u:object_r:system_file:s0");
set_metadata("/system/xbin/mqsasd", "capabilities", 0x0, "selabel", "u:object_r:mqsasd_exec:s0");
set_metadata("/system/xbin/shelld", "capabilities", 0x0, "selabel", "u:object_r:shelld_exec:s0");
set_metadata("/system/xbin/tcpdump", "uid", 0, "gid", 0, "mode", 0755, "capabilities", 0x0, "selabel", "u:object_r:system_file:s0");
run_program("/system/xbin/busybox", "--install", "-s", "/system/xbin");
unmount("/cust");
unmount("/system");

